[05/Feb/2019 03:55:03] INFO [processes:22] {'y': 0.551718494353145}
[05/Feb/2019 03:55:03] INFO [processes:18] =====================================
[05/Feb/2019 03:55:03] INFO [processes:22] {'y': 0.04046340855569175}
[05/Feb/2019 03:55:04] INFO [processes:18] =====================================
[05/Feb/2019 03:55:04] INFO [processes:22] {'y': 0.7714404699118375}
[05/Feb/2019 03:55:04] INFO [processes:18] =====================================
[05/Feb/2019 03:55:04] INFO [processes:22] {'y': 0.8886308501751936}
[05/Feb/2019 03:55:04] INFO [processes:18] =====================================
[05/Feb/2019 03:55:04] INFO [processes:18] =====================================
[05/Feb/2019 03:55:04] INFO [processes:22] {'y': 0.49965550580222673}
[05/Feb/2019 03:55:04] INFO [processes:22] {'y': 0.5490467816017154}
[05/Feb/2019 03:55:04] INFO [processes:18] =====================================
[05/Feb/2019 03:55:04] INFO [processes:22] {'y': 0.3623738298633038}
[05/Feb/2019 03:55:04] INFO [processes:18] =====================================
[05/Feb/2019 03:55:04] INFO [processes:22] {'y': 0.9014911659537714}
[05/Feb/2019 03:55:05] INFO [processes:18] =====================================
[05/Feb/2019 03:55:05] INFO [processes:22] {'y': 0.5288628423228449}
[05/Feb/2019 03:55:05] INFO [processes:18] =====================================
[05/Feb/2019 03:55:05] INFO [processes:22] {'y': 0.5181542840508931}
[05/Feb/2019 03:55:05] INFO [processes:18] =====================================
[05/Feb/2019 03:55:05] INFO [processes:22] {'y': 0.8831306287181819}
[05/Feb/2019 03:55:05] INFO [processes:18] =====================================
[05/Feb/2019 03:55:05] INFO [processes:22] {'y': 0.15916208798781928}
[05/Feb/2019 03:55:05] INFO [processes:18] =====================================
[05/Feb/2019 03:55:05] INFO [processes:18] =====================================
[05/Feb/2019 03:55:05] INFO [processes:22] {'y': 0.13268178221879268}
[05/Feb/2019 03:55:05] INFO [processes:22] {'y': 0.5738128136556465}
[05/Feb/2019 03:55:05] INFO [processes:18] =====================================
[05/Feb/2019 03:55:05] INFO [processes:18] =====================================
[05/Feb/2019 03:55:05] INFO [processes:22] {'y': 0.8317741485411245}
[05/Feb/2019 03:55:05] INFO [processes:22] {'y': 0.35127973989503847}
[05/Feb/2019 03:55:06] INFO [processes:18] =====================================
[05/Feb/2019 03:55:06] INFO [processes:18] =====================================
[05/Feb/2019 03:55:06] INFO [processes:22] {'y': 0.7326457342791223}
[05/Feb/2019 03:55:06] INFO [processes:22] {'y': 0.9058657961245544}
[05/Feb/2019 03:55:06] INFO [processes:18] =====================================
[05/Feb/2019 03:55:06] INFO [processes:22] {'y': 0.39768359663768904}
[05/Feb/2019 03:55:06] INFO [processes:18] =====================================
[05/Feb/2019 03:55:06] INFO [processes:22] {'y': 0.5208913134155614}
[05/Feb/2019 03:55:06] INFO [processes:18] =====================================
[05/Feb/2019 03:55:06] INFO [processes:22] {'y': 0.20519051811757527}
[05/Feb/2019 03:55:06] INFO [processes:18] =====================================
[05/Feb/2019 03:55:06] INFO [processes:22] {'y': 0.7031123189333179}
[05/Feb/2019 03:55:07] INFO [processes:18] =====================================
[05/Feb/2019 03:55:07] INFO [processes:18] =====================================
[05/Feb/2019 03:55:07] INFO [processes:22] {'y': 0.6580587701380678}
[05/Feb/2019 03:55:07] INFO [processes:22] {'y': 0.8460240001398128}
[05/Feb/2019 03:55:07] INFO [processes:18] =====================================
[05/Feb/2019 03:55:07] INFO [processes:22] {'y': 0.09495204585130312}
[05/Feb/2019 03:55:07] INFO [processes:18] =====================================
[05/Feb/2019 03:55:07] INFO [processes:22] {'y': 0.09206634044127837}
[05/Feb/2019 03:55:07] INFO [processes:18] =====================================
[05/Feb/2019 03:55:07] INFO [processes:18] =====================================
[05/Feb/2019 03:55:07] INFO [processes:22] {'y': 0.6634013846715193}
[05/Feb/2019 03:55:07] INFO [processes:22] {'y': 0.23261911691369264}
[05/Feb/2019 03:55:08] INFO [processes:18] =====================================
[05/Feb/2019 03:55:08] INFO [processes:22] {'y': 0.21401712940834228}
[05/Feb/2019 03:55:08] INFO [processes:18] =====================================
[05/Feb/2019 03:55:08] INFO [processes:22] {'y': 0.6263587875706444}
[05/Feb/2019 03:55:08] INFO [processes:18] =====================================
[05/Feb/2019 03:55:08] INFO [processes:22] {'y': 0.11735521161088813}
[05/Feb/2019 03:55:08] INFO [processes:18] =====================================
[05/Feb/2019 03:55:08] INFO [processes:22] {'y': 0.1799625972192067}
[05/Feb/2019 03:55:08] INFO [processes:18] =====================================
[05/Feb/2019 03:55:08] INFO [processes:22] {'y': 0.5801502142238505}
[05/Feb/2019 03:55:08] INFO [processes:18] =====================================
