[05/Feb/2019 03:55:08] INFO [processes:22] {'y': 0.09463077055657299}
[05/Feb/2019 03:55:08] INFO [processes:18] =====================================
[05/Feb/2019 03:55:08] INFO [processes:22] {'y': 0.6047347905591794}
[05/Feb/2019 03:55:08] INFO [processes:18] =====================================
[05/Feb/2019 03:55:08] INFO [processes:22] {'y': 0.987898262761562}
[05/Feb/2019 03:55:09] INFO [processes:18] =====================================
[05/Feb/2019 03:55:09] INFO [processes:22] {'y': 0.7096299987867576}
[05/Feb/2019 03:55:09] INFO [processes:18] =====================================
[05/Feb/2019 03:55:09] INFO [processes:22] {'y': 0.37431990326405484}
[05/Feb/2019 03:55:09] INFO [processes:18] =====================================
[05/Feb/2019 03:55:09] INFO [processes:22] {'y': 0.8287037527661976}
[05/Feb/2019 03:55:09] INFO [processes:18] =====================================
[05/Feb/2019 03:55:09] INFO [processes:22] {'y': 0.9698571373163214}
[05/Feb/2019 03:55:09] INFO [processes:18] =====================================
[05/Feb/2019 03:55:09] INFO [processes:18] =====================================
[05/Feb/2019 03:55:09] INFO [processes:22] {'y': 0.687826610640778}
[05/Feb/2019 03:55:09] INFO [processes:22] {'y': 0.47108780011128626}
[05/Feb/2019 03:55:10] INFO [processes:18] =====================================
[05/Feb/2019 03:55:10] INFO [processes:22] {'y': 0.13774027469049732}
[05/Feb/2019 03:55:10] INFO [processes:18] =====================================
[05/Feb/2019 03:55:10] INFO [processes:22] {'y': 0.7125573159201487}
[05/Feb/2019 03:55:10] INFO [processes:18] =====================================
[05/Feb/2019 03:55:10] INFO [processes:22] {'y': 0.20079285784676415}
[05/Feb/2019 03:55:10] INFO [processes:18] =====================================
[05/Feb/2019 03:55:10] INFO [processes:22] {'y': 0.19873556306874562}
[05/Feb/2019 03:55:10] INFO [processes:18] =====================================
[05/Feb/2019 03:55:10] INFO [processes:18] =====================================
[05/Feb/2019 03:55:10] INFO [processes:22] {'y': 0.9273700799462666}
[05/Feb/2019 03:55:10] INFO [processes:22] {'y': 0.11885543601542459}
[05/Feb/2019 03:55:11] INFO [processes:18] =====================================
[05/Feb/2019 03:55:11] INFO [processes:18] =====================================
[05/Feb/2019 03:55:11] INFO [processes:22] {'y': 0.02380570197874765}
[05/Feb/2019 03:55:11] INFO [processes:22] {'y': 0.5982154875224915}
[05/Feb/2019 03:55:11] INFO [processes:18] =====================================
[05/Feb/2019 03:55:11] INFO [processes:22] {'y': 0.9363094497027163}
[05/Feb/2019 03:55:11] INFO [processes:18] =====================================
[05/Feb/2019 03:55:11] INFO [processes:22] {'y': 0.16218302827923747}
[05/Feb/2019 03:55:11] INFO [processes:18] =====================================
[05/Feb/2019 03:55:11] INFO [processes:18] =====================================
[05/Feb/2019 03:55:11] INFO [processes:22] {'y': 0.46840826602636254}
[05/Feb/2019 03:55:11] INFO [processes:22] {'y': 0.18106162427352812}
[05/Feb/2019 03:55:12] INFO [processes:18] =====================================
[05/Feb/2019 03:55:12] INFO [processes:22] {'y': 0.08291832550846934}
[05/Feb/2019 03:55:12] INFO [processes:18] =====================================
[05/Feb/2019 03:55:12] INFO [processes:22] {'y': 0.47297959499214937}
[05/Feb/2019 03:55:12] INFO [processes:18] =====================================
[05/Feb/2019 03:55:12] INFO [processes:22] {'y': 0.03618459296397247}
[05/Feb/2019 03:55:12] INFO [processes:18] =====================================
[05/Feb/2019 03:55:12] INFO [processes:22] {'y': 0.04918069600973285}
[05/Feb/2019 03:55:12] INFO [processes:18] =====================================
[05/Feb/2019 03:55:12] INFO [processes:22] {'y': 0.34195233952803106}
[05/Feb/2019 03:55:12] INFO [processes:18] =====================================
[05/Feb/2019 03:55:12] INFO [processes:22] {'y': 0.633012662601991}
[05/Feb/2019 03:55:12] INFO [processes:18] =====================================
[05/Feb/2019 03:55:12] INFO [processes:22] {'y': 0.7603336509174733}
[05/Feb/2019 03:55:12] INFO [processes:18] =====================================
[05/Feb/2019 03:55:12] INFO [processes:22] {'y': 0.8380614065527743}
[05/Feb/2019 03:55:13] INFO [processes:18] =====================================
[05/Feb/2019 03:55:13] INFO [processes:18] =====================================
[05/Feb/2019 03:55:13] INFO [processes:22] {'y': 0.6497686056664539}
[05/Feb/2019 03:55:13] INFO [processes:22] {'y': 0.689465350230836}
[05/Feb/2019 03:55:13] INFO [processes:18] =====================================
[05/Feb/2019 03:55:13] INFO [processes:22] {'y': 0.6069646928004323}
[05/Feb/2019 03:55:13] INFO [processes:18] =====================================
[05/Feb/2019 03:55:13] INFO [processes:22] {'y': 0.7992417360171645}
[05/Feb/2019 03:55:13] INFO [processes:18] =====================================
